{
  "pages": [
    {
      "student_name": "Joseph Sanossian",
      "banner": "img/banner.jpg",
      "title": "Welcome",
      "layout": 1,
      "footer": "this site was created and maintained by Joseph Sanossian",
      "color": 1,
      "components": [
        {
          "type": "paragraph",
          "text": "Hello my name is Joseph Sanossian. I am a Computer Science Major from StonyBrook University. I am currently taking CSE 219 where we learn the following: ",
          "width": 0,
          "height": 0,
          "font": "Butterfly Kids"
        },
        {
          "type": "list",
          "text": "JSON \n Javascript \n CSS \n HTML \n Java \n Front-end Systems \n Software Design",
          "width": 0,
          "height": 0,
          "font": "Engagement"
        },
        {
          "type": "image",
          "text": "img/me.jpg",
          "width": 150,
          "height": 200,
          "font": ""
        },
        {
          "type": "video",
          "text": "vid/piano.mp4",
          "width": 400,
          "height": 300,
          "font": ""
        }
      ]
    },
    {
      "student_name": "Joseph Sanossian",
      "banner": "img/banner.jpg",
      "title": "About Me",
      "layout": 1,
      "footer": "this site was created and maintained by Joseph Sanossian",
      "color": 1,
      "components": [
        {
          "type": "header",
          "text": "Who Am I?",
          "width": 0,
          "height": 0,
          "font": "Engagement"
        },
        {
          "type": "paragraph",
          "text": "I am a 21 year old computer science student from Miller Place, NY. My dream is to become an accredited investor, specializing in helping startup companies, in the technology sector, through early seed investments.\nBesides programming, my hobbies include boating, fishing, surfing- basically anything involving marine activities.",
          "width": 0,
          "height": 0,
          "font": "Engagement"
        }
      ]
    },
    {
      "student_name": "Joseph Sanossian",
      "banner": "img/banner.jpg",
      "title": "Videos",
      "layout": 1,
      "footer": "this site was created and maintained by Joseph Sanossian",
      "color": 1,
      "components": [
        {
          "type": "header",
          "text": "Introduction Video",
          "width": 0,
          "height": 0,
          "font": "Calligraffiti"
        },
        {
          "type": "video",
          "text": "vid/piano.mp4",
          "width": 400,
          "height": 300,
          "font": ""
        }
      ]
    }
  ]
}